<svg width="20" height="20" viewBox="0 0 20 20" fill="none" xmlns="http://www.w3.org/2000/svg">
<g clip-path="url(#clip0_89_15854)">
<path d="M1.93296 17.7473C1.90483 17.952 1.97242 18.153 2.1184 18.2989C2.26437 18.4449 2.46529 18.5125 2.6817 18.4823L7.3011 17.6334C7.35371 17.6238 7.40215 17.5985 7.44004 17.5606L18.0116 6.98908C18.7464 6.25427 18.7464 5.05888 18.0116 4.32407L16.0932 2.40574C15.3584 1.67094 14.163 1.67094 13.4282 2.40574L2.85637 12.9776C2.81848 13.0155 2.79335 13.0638 2.78358 13.1165L1.93296 17.7473ZM4.21851 17.6632C4.21682 17.6615 4.21643 17.6593 4.21473 17.6576L2.75983 16.2027C2.75813 16.201 2.75592 16.2006 2.75423 16.199L3.23759 13.5689L6.84877 17.1801L4.21851 17.6632ZM3.49827 13.0829L11.9297 4.65151L15.7662 8.48804L7.3348 16.9195L3.49827 13.0829ZM16.1392 8.11435L12.3031 4.27816L12.7542 3.82697L16.5908 7.6635L16.1396 8.11469L16.1392 8.11435ZM2.59763 17.9612C2.54372 17.9685 2.50817 17.9421 2.49176 17.9257C2.47536 17.9093 2.44879 17.8739 2.45426 17.8314L2.63864 16.8283L3.58959 17.7792L2.59763 17.9612ZM15.7201 2.77898L17.6382 4.69705C18.167 5.22584 18.1671 6.08642 17.6382 6.61534L16.9639 7.28961L13.1277 3.45342L13.802 2.77915C14.3308 2.25036 15.1912 2.25009 15.7201 2.77892L15.7201 2.77898Z" fill="#FF5E00"/>
<path fill-rule="evenodd" clip-rule="evenodd" d="M1.851 17.732L2.70162 13.1012C2.71441 13.0321 2.74744 12.9684 2.79745 12.9184L13.3693 2.3465C14.1367 1.57916 15.3848 1.57916 16.1522 2.3465L18.0705 4.26484C18.8378 5.03218 18.8378 6.28034 18.0705 7.04769L7.49897 17.6192C7.44902 17.6692 7.38524 17.7024 7.31614 17.715C7.31613 17.7151 7.31615 17.715 7.31614 17.715L2.69324 18.5646C2.45169 18.5983 2.22446 18.5225 2.05947 18.3576C1.89505 18.1931 1.81873 17.9662 1.85041 17.7357L1.851 17.732ZM7.3011 17.6331C7.35371 17.6234 7.40215 17.5982 7.44004 17.5603L18.0116 6.98876C18.7464 6.25396 18.7464 5.05856 18.0116 4.32376L16.0932 2.40543C15.3584 1.67063 14.163 1.67063 13.4282 2.40543L2.85638 12.9773C2.81848 13.0152 2.79335 13.0635 2.78358 13.1162L1.93296 17.747C1.90483 17.9517 1.97242 18.1526 2.1184 18.2986C2.26437 18.4446 2.46529 18.5122 2.6817 18.482L7.3011 17.6331ZM4.21851 17.6629L6.84877 17.1798L3.23759 13.5686L2.75423 16.1986C2.75507 16.1995 2.75605 16.2 2.75703 16.2005C2.758 16.201 2.75898 16.2016 2.75983 16.2024L4.21474 17.6573C4.21558 17.6582 4.2161 17.6591 4.21662 17.6601C4.21714 17.6611 4.21766 17.6621 4.21851 17.6629ZM2.84438 16.1691L4.24803 17.5728L6.67763 17.1265L3.29087 13.7397L2.84438 16.1691ZM11.9297 4.76905L3.61613 13.0826L7.3348 16.8013L15.6484 8.48773L11.9297 4.76905ZM12.4209 4.27784L16.1396 7.99652L16.4729 7.66318L12.7542 3.94451L12.4209 4.27784ZM2.58494 17.8785L3.41842 17.7256L2.69191 16.9991L2.53687 17.8426C2.53691 17.844 2.53733 17.8467 2.53952 17.8511C2.54254 17.8572 2.54716 17.8629 2.55069 17.8665C2.55371 17.8695 2.55835 17.8732 2.56409 17.8757C2.56885 17.8778 2.57538 17.8796 2.58494 17.8785ZM2.45426 17.8311C2.44879 17.8736 2.47536 17.909 2.49177 17.9254C2.50817 17.9418 2.54372 17.9682 2.59763 17.9609L3.58959 17.7789L2.63864 16.828L2.45426 17.8311ZM17.5793 4.75566L15.6612 2.83759C15.1649 2.34133 14.3572 2.34149 13.8609 2.83776L13.2456 3.4531L16.9639 7.17145L17.5793 6.55611C18.0756 6.05973 18.0755 5.25191 17.5793 4.75566ZM3.49827 13.0826L7.3348 16.9192L15.7662 8.48773L11.9297 4.6512L3.49827 13.0826ZM16.1392 8.11404L16.5908 7.66318L12.7542 3.82665L12.3031 4.27784L16.1392 8.11404ZM17.6382 4.69673L15.7201 2.77867C15.1913 2.24984 14.3308 2.25004 13.802 2.77884L13.1277 3.4531L16.9639 7.2893L17.6382 6.61503C18.1671 6.0861 18.167 5.22553 17.6382 4.69673Z" fill="#FF5E00"/>
<path d="M12.5053 7.91053C11.7699 7.1752 9.99614 8.15522 8.70078 9.45059C7.40541 10.746 6.42552 12.5196 7.16085 13.2549C7.89618 13.9903 9.66983 13.0104 10.9652 11.715C12.2606 10.4196 13.2406 8.64586 12.5053 7.91053ZM7.53401 12.8818C7.21707 12.5648 7.64962 11.2484 9.07379 9.8242C10.498 8.40003 11.8148 7.96734 12.1316 8.28415C12.4484 8.60096 12.0158 9.91782 10.5916 11.342C9.16755 12.766 7.85095 13.1987 7.53401 12.8818Z" fill="#FF5E00"/>
<path fill-rule="evenodd" clip-rule="evenodd" d="M11.7802 7.57616C12.0865 7.56695 12.36 7.64804 12.5642 7.85227C12.7684 8.0565 12.8495 8.32993 12.8403 8.6362C12.8311 8.94109 12.7327 9.28346 12.5727 9.63773C12.2524 10.3466 11.6768 11.122 11.0241 11.7746C10.3715 12.4272 9.59616 13.0029 8.88732 13.3231C8.53307 13.4831 8.19071 13.5815 7.88584 13.5907C7.57957 13.5999 7.30615 13.5188 7.10193 13.3145C6.8977 13.1103 6.8166 12.8369 6.82579 12.5306C6.83494 12.2257 6.93333 11.8834 7.09336 11.5291C7.41357 10.8203 7.98922 10.045 8.64185 9.39233C9.29448 8.7397 10.0698 8.16402 10.7787 7.84377C11.133 7.68372 11.4754 7.58532 11.7802 7.57616ZM7.52357 12.4792C7.50611 12.6614 7.54044 12.771 7.59293 12.8235C7.64542 12.876 7.75507 12.9103 7.93725 12.8929C8.11546 12.8758 8.3451 12.8104 8.61338 12.6895C9.1492 12.4478 9.82626 11.9901 10.5327 11.2837C11.2391 10.5773 11.6969 9.90011 11.9385 9.36422C12.0595 9.09591 12.1249 8.86624 12.142 8.68802C12.1595 8.50581 12.1252 8.39619 12.0727 8.34374C12.0203 8.29129 11.9106 8.25698 11.7284 8.27447C11.5502 8.29158 11.3205 8.35695 11.0522 8.47794C10.5163 8.7196 9.83919 9.17733 9.13272 9.88379C8.42625 10.5903 7.96855 11.2673 7.72695 11.8031C7.60598 12.0714 7.54065 12.301 7.52357 12.4792ZM8.70078 9.45125C9.99614 8.15589 11.7699 7.17587 12.5053 7.9112C13.2406 8.64652 12.2606 10.4203 10.9652 11.7157C9.66983 13.011 7.89618 13.9909 7.16085 13.2556C6.42552 12.5203 7.40541 10.7466 8.70078 9.45125ZM9.07379 9.82487C7.64962 11.249 7.21707 12.5655 7.53401 12.8824C7.85095 13.1994 9.16755 12.7667 10.5916 11.3427C12.0158 9.91849 12.4484 8.60162 12.1316 8.28481C11.8148 7.968 10.498 8.4007 9.07379 9.82487Z" fill="#FF5E00"/>
</g>
<defs>
<clipPath id="clip0_89_15854">
<rect width="20" height="20" fill="white"/>
</clipPath>
</defs>
</svg>
