<svg xmlns="http://www.w3.org/2000/svg" width="14.019" height="14" viewBox="0 0 14.019 14">
  <g id="arrow_icon" data-name="arrow icon" transform="translate(-2212.999 -1763)">
    <path id="arrow_icon-2" data-name="arrow icon" d="M2213,1770l7.429,7,1.535-1.727-4.861-4.264h9.915l-.062-2.035H2217.1l4.861-4.283-1.651-1.691Z" fill="#b3b3b3"/>
  </g>
</svg>
