<svg id="barcode" xmlns="http://www.w3.org/2000/svg" width="52.303" height="41.843" viewBox="0 0 52.303 41.843">
  <g id="Group_171" data-name="Group 171">
    <g id="Group_170" data-name="Group 170">
      <g id="Path_192" data-name="Path 192" transform="translate(0 -48)" fill="#fff">
        <path d="M 1.743431806564331 58.26058197021484 C 0.8923818469047546 58.26058197021484 0.2000018507242203 57.56820297241211 0.2000018507242203 56.7171516418457 L 0.2000018507242203 49.74343490600586 C 0.2000018507242203 48.89238357543945 0.8923818469047546 48.20000457763672 1.743431806564331 48.20000457763672 L 8.717151641845703 48.20000457763672 C 9.568202018737793 48.20000457763672 10.26058197021484 48.89238357543945 10.26058197021484 49.74343490600586 C 10.26058197021484 50.594482421875 9.568202018737793 51.28686141967773 8.717151641845703 51.28686141967773 L 3.486861944198608 51.28686141967773 L 3.286861896514893 51.28686141967773 L 3.286861896514893 51.48686218261719 L 3.286861896514893 56.7171516418457 C 3.286861896514893 57.56820297241211 2.594481945037842 58.26058197021484 1.743431806564331 58.26058197021484 Z" stroke="none"/>
        <path d="M 1.74343204498291 48.40000152587891 C 1.00266170501709 48.40000152587891 0.4000015258789062 49.00266265869141 0.4000015258789062 49.74343490600586 L 0.4000015258789062 56.7171516418457 C 0.4000015258789062 57.45792388916016 1.00266170501709 58.06058502197266 1.74343204498291 58.06058502197266 C 2.484201908111572 58.06058502197266 3.086861610412598 57.45792388916016 3.086861610412598 56.7171516418457 L 3.086861610412598 51.48686218261719 L 3.086861610412598 51.08686447143555 L 3.486861705780029 51.08686447143555 L 8.717151641845703 51.08686447143555 C 9.457921981811523 51.08686447143555 10.06058216094971 50.48420333862305 10.06058216094971 49.74343490600586 C 10.06058216094971 49.00266265869141 9.457921981811523 48.40000152587891 8.717151641845703 48.40000152587891 L 1.74343204498291 48.40000152587891 M 1.74343204498291 48.00000381469727 L 8.717151641845703 48.00000381469727 C 9.679521560668945 48.00000381469727 10.46058177947998 48.78106307983398 10.46058177947998 49.74343490600586 C 10.46058177947998 50.70580291748047 9.679521560668945 51.48686218261719 8.717151641845703 51.48686218261719 L 3.486861705780029 51.48686218261719 L 3.486861705780029 56.7171516418457 C 3.486861705780029 57.67952346801758 2.705801963806152 58.4605827331543 1.74343204498291 58.4605827331543 C 0.781062126159668 58.4605827331543 1.9073486328125e-06 57.67952346801758 1.9073486328125e-06 56.7171516418457 L 1.9073486328125e-06 49.74343490600586 C 1.9073486328125e-06 48.78106307983398 0.781062126159668 48.00000381469727 1.74343204498291 48.00000381469727 Z" stroke="none" fill="#f6f8fa"/>
      </g>
    </g>
  </g>
  <g id="Group_173" data-name="Group 173" transform="translate(41.842 31.382)">
    <g id="Group_172" data-name="Group 172">
      <g id="Path_193" data-name="Path 193" transform="translate(-384 -336)" fill="#fff">
        <path d="M 392.7171630859375 346.2606201171875 L 385.7434387207031 346.2606201171875 C 384.8923645019531 346.2606201171875 384.1999816894531 345.5682373046875 384.1999816894531 344.7171630859375 C 384.1999816894531 343.8661193847656 384.8923645019531 343.1737365722656 385.7434387207031 343.1737365722656 L 390.9737243652344 343.1737365722656 L 391.1737365722656 343.1737365722656 L 391.1737365722656 342.9737243652344 L 391.1737365722656 337.7434387207031 C 391.1737365722656 336.8923645019531 391.8661193847656 336.1999816894531 392.7171630859375 336.1999816894531 C 393.5682373046875 336.1999816894531 394.2606201171875 336.8923645019531 394.2606201171875 337.7434387207031 L 394.2606201171875 344.7171630859375 C 394.2606201171875 345.5682373046875 393.5682373046875 346.2606201171875 392.7171630859375 346.2606201171875 Z" stroke="none"/>
        <path d="M 392.7171630859375 336.3999938964844 C 391.9763793945312 336.3999938964844 391.3737182617188 337.0026550292969 391.3737182617188 337.7434387207031 L 391.3737182617188 342.9737243652344 L 391.3737182617188 343.3737182617188 L 390.9737243652344 343.3737182617188 L 385.7434387207031 343.3737182617188 C 385.0026550292969 343.3737182617188 384.3999938964844 343.9763793945312 384.3999938964844 344.7171630859375 C 384.3999938964844 345.4579467773438 385.0026550292969 346.0606079101562 385.7434387207031 346.0606079101562 L 392.7171630859375 346.0606079101562 C 393.4579467773438 346.0606079101562 394.0606079101562 345.4579467773438 394.0606079101562 344.7171630859375 L 394.0606079101562 337.7434387207031 C 394.0606079101562 337.0026550292969 393.4579467773438 336.3999938964844 392.7171630859375 336.3999938964844 M 392.7171630859375 336 C 393.6795349121094 336 394.4606018066406 336.7810668945312 394.4606018066406 337.7434387207031 L 394.4606018066406 344.7171630859375 C 394.4606018066406 345.6795349121094 393.6795349121094 346.4606018066406 392.7171630859375 346.4606018066406 L 385.7434387207031 346.4606018066406 C 384.7810668945312 346.4606018066406 384 345.6795349121094 384 344.7171630859375 C 384 343.7547912597656 384.7810668945312 342.9737243652344 385.7434387207031 342.9737243652344 L 390.9737243652344 342.9737243652344 L 390.9737243652344 337.7434387207031 C 390.9737243652344 336.7810668945312 391.7547912597656 336 392.7171630859375 336 Z" stroke="none" fill="#f6f8fa"/>
      </g>
    </g>
  </g>
  <g id="Group_175" data-name="Group 175" transform="translate(41.842)">
    <g id="Group_174" data-name="Group 174">
      <g id="Path_194" data-name="Path 194" transform="translate(-384 -48)" fill="#fff">
        <path d="M 392.7171630859375 58.26058197021484 C 391.8661193847656 58.26058197021484 391.1737365722656 57.56820297241211 391.1737365722656 56.7171516418457 L 391.1737365722656 51.48686218261719 L 391.1737365722656 51.28686141967773 L 390.9737243652344 51.28686141967773 L 385.7434387207031 51.28686141967773 C 384.8923645019531 51.28686141967773 384.1999816894531 50.594482421875 384.1999816894531 49.74343490600586 C 384.1999816894531 48.89238357543945 384.8923645019531 48.20000457763672 385.7434387207031 48.20000457763672 L 392.7171630859375 48.20000457763672 C 393.5682373046875 48.20000457763672 394.2606201171875 48.89238357543945 394.2606201171875 49.74343490600586 L 394.2606201171875 56.7171516418457 C 394.2606201171875 57.56820297241211 393.5682373046875 58.26058197021484 392.7171630859375 58.26058197021484 Z" stroke="none"/>
        <path d="M 385.7434387207031 48.40000152587891 C 385.0026550292969 48.40000152587891 384.3999938964844 49.00266265869141 384.3999938964844 49.74343490600586 C 384.3999938964844 50.48420333862305 385.0026550292969 51.08686447143555 385.7434387207031 51.08686447143555 L 390.9737243652344 51.08686447143555 L 391.3737182617188 51.08686447143555 L 391.3737182617188 51.48686218261719 L 391.3737182617188 56.7171516418457 C 391.3737182617188 57.45792388916016 391.9763793945312 58.06058502197266 392.7171630859375 58.06058502197266 C 393.4579467773438 58.06058502197266 394.0606079101562 57.45792388916016 394.0606079101562 56.7171516418457 L 394.0606079101562 49.74343490600586 C 394.0606079101562 49.00266265869141 393.4579467773438 48.40000152587891 392.7171630859375 48.40000152587891 L 385.7434387207031 48.40000152587891 M 385.7434387207031 48.00000381469727 L 392.7171630859375 48.00000381469727 C 393.6795349121094 48.00000381469727 394.4606018066406 48.78106307983398 394.4606018066406 49.74343490600586 L 394.4606018066406 56.7171516418457 C 394.4606018066406 57.67952346801758 393.6795349121094 58.4605827331543 392.7171630859375 58.4605827331543 C 391.7547912597656 58.4605827331543 390.9737243652344 57.67952346801758 390.9737243652344 56.7171516418457 L 390.9737243652344 51.48686218261719 L 385.7434387207031 51.48686218261719 C 384.7810668945312 51.48686218261719 384 50.70580291748047 384 49.74343490600586 C 384 48.78106307983398 384.7810668945312 48.00000381469727 385.7434387207031 48.00000381469727 Z" stroke="none" fill="#f6f8fa"/>
      </g>
    </g>
  </g>
  <g id="Group_177" data-name="Group 177" transform="translate(0 31.382)">
    <g id="Group_176" data-name="Group 176">
      <g id="Path_195" data-name="Path 195" transform="translate(0 -336)" fill="#fff">
        <path d="M 8.717151641845703 346.2606201171875 L 1.743431806564331 346.2606201171875 C 0.8923818469047546 346.2606201171875 0.2000018507242203 345.5682373046875 0.2000018507242203 344.7171630859375 L 0.2000018507242203 337.7434387207031 C 0.2000018507242203 336.8923645019531 0.8923818469047546 336.1999816894531 1.743431806564331 336.1999816894531 C 2.594481945037842 336.1999816894531 3.286861896514893 336.8923645019531 3.286861896514893 337.7434387207031 L 3.286861896514893 342.9737243652344 L 3.286861896514893 343.1737365722656 L 3.486861944198608 343.1737365722656 L 8.717151641845703 343.1737365722656 C 9.568202018737793 343.1737365722656 10.26058197021484 343.8661193847656 10.26058197021484 344.7171630859375 C 10.26058197021484 345.5682373046875 9.568202018737793 346.2606201171875 8.717151641845703 346.2606201171875 Z" stroke="none"/>
        <path d="M 8.717151641845703 346.0606079101562 C 9.457921981811523 346.0606079101562 10.06058216094971 345.4579467773438 10.06058216094971 344.7171630859375 C 10.06058216094971 343.9763793945312 9.457921981811523 343.3737182617188 8.717151641845703 343.3737182617188 L 3.486861944198608 343.3737182617188 L 3.086861848831177 343.3737182617188 L 3.086861848831177 342.9737243652344 L 3.086861848831177 337.7434387207031 C 3.086861848831177 337.0026550292969 2.484201908111572 336.3999938964844 1.743431806564331 336.3999938964844 C 1.002661824226379 336.3999938964844 0.4000018537044525 337.0026550292969 0.4000018537044525 337.7434387207031 L 0.4000018537044525 344.7171630859375 C 0.4000018537044525 345.4579467773438 1.002661824226379 346.0606079101562 1.743431806564331 346.0606079101562 L 8.717151641845703 346.0606079101562 M 8.717151641845703 346.4606018066406 L 1.743431806564331 346.4606018066406 C 0.7810618281364441 346.4606018066406 1.843414338509319e-06 345.6795349121094 1.843414338509319e-06 344.7171630859375 L 1.843414338509319e-06 337.7434387207031 C 1.843414338509319e-06 336.7810668945312 0.7810618281364441 336 1.743431806564331 336 C 2.705801725387573 336 3.486861944198608 336.7810668945312 3.486861944198608 337.7434387207031 L 3.486861944198608 342.9737243652344 L 8.717151641845703 342.9737243652344 C 9.679521560668945 342.9737243652344 10.46058177947998 343.7547912597656 10.46058177947998 344.7171630859375 C 10.46058177947998 345.6795349121094 9.679521560668945 346.4606018066406 8.717151641845703 346.4606018066406 Z" stroke="none" fill="#f6f8fa"/>
      </g>
    </g>
  </g>
  <g id="Group_179" data-name="Group 179" transform="translate(6.974 6.974)">
    <g id="Group_178" data-name="Group 178">
      <g id="Rectangle_46" data-name="Rectangle 46" fill="#fff" stroke="#f6f8fa" stroke-width="0.4">
        <rect width="3.487" height="27.895" stroke="none"/>
        <rect x="0.2" y="0.2" width="3.087" height="27.495" fill="none"/>
      </g>
    </g>
  </g>
  <g id="Group_181" data-name="Group 181" transform="translate(13.947 6.974)">
    <g id="Group_180" data-name="Group 180">
      <g id="Rectangle_47" data-name="Rectangle 47" fill="#fff" stroke="#f6f8fa" stroke-width="0.4">
        <rect width="3.487" height="20.921" stroke="none"/>
        <rect x="0.2" y="0.2" width="3.087" height="20.521" fill="none"/>
      </g>
    </g>
  </g>
  <g id="Group_183" data-name="Group 183" transform="translate(20.921 6.974)">
    <g id="Group_182" data-name="Group 182">
      <g id="Rectangle_48" data-name="Rectangle 48" fill="#fff" stroke="#f6f8fa" stroke-width="0.4">
        <rect width="3.487" height="20.921" stroke="none"/>
        <rect x="0.2" y="0.2" width="3.087" height="20.521" fill="none"/>
      </g>
    </g>
  </g>
  <g id="Group_185" data-name="Group 185" transform="translate(27.895 6.974)">
    <g id="Group_184" data-name="Group 184">
      <g id="Rectangle_49" data-name="Rectangle 49" fill="#fff" stroke="#f6f8fa" stroke-width="0.4">
        <rect width="3.487" height="27.895" stroke="none"/>
        <rect x="0.2" y="0.2" width="3.087" height="27.495" fill="none"/>
      </g>
    </g>
  </g>
  <g id="Group_187" data-name="Group 187" transform="translate(34.869 6.974)">
    <g id="Group_186" data-name="Group 186">
      <g id="Rectangle_50" data-name="Rectangle 50" fill="#fff" stroke="#f6f8fa" stroke-width="0.4">
        <rect width="3.487" height="20.921" stroke="none"/>
        <rect x="0.2" y="0.2" width="3.087" height="20.521" fill="none"/>
      </g>
    </g>
  </g>
  <g id="Group_189" data-name="Group 189" transform="translate(41.842 6.974)">
    <g id="Group_188" data-name="Group 188">
      <g id="Rectangle_51" data-name="Rectangle 51" fill="#fff" stroke="#f6f8fa" stroke-width="0.4">
        <rect width="3.487" height="27.895" stroke="none"/>
        <rect x="0.2" y="0.2" width="3.087" height="27.495" fill="none"/>
      </g>
    </g>
  </g>
  <g id="Group_191" data-name="Group 191" transform="translate(13.947 31.382)">
    <g id="Group_190" data-name="Group 190">
      <g id="Rectangle_52" data-name="Rectangle 52" fill="#fff" stroke="#f6f8fa" stroke-width="0.4">
        <rect width="3.487" height="3.487" stroke="none"/>
        <rect x="0.2" y="0.2" width="3.087" height="3.087" fill="none"/>
      </g>
    </g>
  </g>
  <g id="Group_193" data-name="Group 193" transform="translate(20.921 31.382)">
    <g id="Group_192" data-name="Group 192">
      <g id="Rectangle_53" data-name="Rectangle 53" fill="#fff" stroke="#f6f8fa" stroke-width="0.4">
        <rect width="3.487" height="3.487" stroke="none"/>
        <rect x="0.2" y="0.2" width="3.087" height="3.087" fill="none"/>
      </g>
    </g>
  </g>
  <g id="Group_195" data-name="Group 195" transform="translate(34.869 31.382)">
    <g id="Group_194" data-name="Group 194">
      <g id="Rectangle_54" data-name="Rectangle 54" fill="#fff" stroke="#f6f8fa" stroke-width="0.4">
        <rect width="3.487" height="3.487" stroke="none"/>
        <rect x="0.2" y="0.2" width="3.087" height="3.087" fill="none"/>
      </g>
    </g>
  </g>
</svg>
