<svg xmlns="http://www.w3.org/2000/svg" width="30" height="30" viewBox="0 0 30 30">
  <g id="ic_favorite_border" transform="translate(-4698 -3746)">
    <rect id="Base" width="30" height="30" transform="translate(4698 3746)" fill="none"/>
    <path id="Icon" d="M619.5-344a5.988,5.988,0,0,0-4.5,2.09,5.988,5.988,0,0,0-4.5-2.09,5.447,5.447,0,0,0-5.5,5.5c0,3.78,3.4,6.86,8.55,11.54l1.45,1.31,1.45-1.32c5.15-4.67,8.55-7.75,8.55-11.53a5.447,5.447,0,0,0-5.5-5.5Zm-4.4,15.55-.1.1-.1-.1c-4.76-4.31-7.9-7.16-7.9-10.05a3.418,3.418,0,0,1,3.5-3.5,3.91,3.91,0,0,1,3.57,2.36h1.87A3.885,3.885,0,0,1,619.5-342a3.418,3.418,0,0,1,3.5,3.5c0,2.89-3.14,5.74-7.9,10.05Z" transform="translate(4098 4096)" fill="#d9d9d9" fill-rule="evenodd"/>
  </g>
</svg>
