<svg xmlns="http://www.w3.org/2000/svg" width="4.182" height="13.381" viewBox="0 0 4.182 13.381">
  <path id="Path_1994" data-name="Path 1994" d="M16,11.29A2.091,2.091,0,1,0,18.091,9.2,2.093,2.093,0,0,0,16,11.29ZM19.94.659l-.355,7.109a.627.627,0,0,1-.626.6H17.224a.627.627,0,0,1-.626-.6L16.242.659A.627.627,0,0,1,16.868,0h2.445A.627.627,0,0,1,19.94.659Z" transform="translate(-16 0)" fill="#ff8103"/>
</svg>
